<svg width="24" height="24" viewBox="0 0 24 24" fill="none" xmlns="http://www.w3.org/2000/svg">
<path d="M0 0V23.9858H12.7739V14.7206H9.65126V10.9383H12.7739V7.76179C12.7739 5.45163 14.6466 3.57889 16.9568 3.57889H20.2213V6.98005H17.8854C17.1513 6.98005 16.5562 7.57516 16.5562 8.30921V10.9383H20.1626L19.6642 14.7206H16.5562V23.9858H23.9858V0H0Z" fill="#2E2E2E"/>
</svg>
